[gd_scene load_steps=9 format=2]

[ext_resource path="res://scenes/gameplay/gameplay_components/map/generator.gd" type="Script" id=1]
[ext_resource path="res://scenes/gameplay/gameplay_components/map/Map.gd" type="Script" id=2]
[ext_resource path="res://scenes/gameplay/gameplay_components/map/pathdinder.gd" type="Script" id=3]
[ext_resource path="res://scenes/gameplay/gameplay_components/map/enemy_spawner.gd" type="Script" id=4]
[ext_resource path="res://resources/misc/Map_tiles.tres" type="TileSet" id=5]
[ext_resource path="res://scenes/gameplay/gameplay_components/actor/Actor.tscn" type="PackedScene" id=6]
[ext_resource path="res://scenes/gameplay/gameplay_components/props/stairs.tscn" type="PackedScene" id=7]
[ext_resource path="res://scenes/gameplay/gameplay_components/object/item.tscn" type="PackedScene" id=8]

[node name="Map" type="TileMap"]
tile_set = ExtResource( 5 )
cell_size = Vector2( 128, 128 )
format = 1
script = ExtResource( 2 )
Actor = ExtResource( 6 )
Stairs = ExtResource( 7 )
Item = ExtResource( 8 )

[node name="pathdinder" type="Node" parent="."]
script = ExtResource( 3 )

[node name="enemy_spawner" type="Node" parent="."]
script = ExtResource( 4 )

[node name="generator" type="Node" parent="."]
script = ExtResource( 1 )
